[gd_scene load_steps=4 format=2]

[ext_resource path="res://bilinear-filtering.shader" type="Shader" id=1]
[ext_resource path="res://test-image.png" type="Texture" id=2]

[sub_resource type="ShaderMaterial" id=1]

render_priority = 0
shader = ExtResource( 1 )
shader_param/pixel_scale = 2.0

[node name="ScaledImage" type="TextureRect" index="0"]

material = SubResource( 1 )
anchor_left = 0.0
anchor_top = 0.0
anchor_right = 0.0
anchor_bottom = 0.0
margin_right = 759.0
margin_bottom = 506.0
rect_pivot_offset = Vector2( 0, 0 )
rect_clip_content = false
mouse_filter = 1
mouse_default_cursor_shape = 0
size_flags_horizontal = 1
size_flags_vertical = 1
texture = ExtResource( 2 )
expand = true
stretch_mode = 0
_sections_unfolded = [ "Material" ]


