[gd_scene load_steps=5 format=2]

[ext_resource path="res://bilinear-filtering.shader" type="Shader" id=1]
[ext_resource path="res://ScaledViewport.gd" type="Script" id=2]
[ext_resource path="res://test-image.png" type="Texture" id=3]

[sub_resource type="ShaderMaterial" id=1]

render_priority = 0
shader = ExtResource( 1 )
shader_param/pixel_scale = null

[node name="ScaledViewport" type="ViewportContainer" index="0"]

material = SubResource( 1 )
anchor_left = 0.0
anchor_top = 0.0
anchor_right = 0.0
anchor_bottom = 0.0
margin_right = 240.0
margin_bottom = 160.0
rect_pivot_offset = Vector2( 0, 0 )
rect_clip_content = false
mouse_filter = 0
mouse_default_cursor_shape = 0
size_flags_horizontal = 1
size_flags_vertical = 1
stretch = false
stretch_shrink = 1
script = ExtResource( 2 )

[node name="Viewport" type="Viewport" parent="." index="0"]

arvr = false
size = Vector2( 240, 160 )
own_world = false
world = null
transparent_bg = false
msaa = 0
hdr = true
disable_3d = false
usage = 2
debug_draw = 0
render_target_v_flip = false
render_target_clear_mode = 0
render_target_update_mode = 3
audio_listener_enable_2d = false
audio_listener_enable_3d = false
physics_object_picking = false
gui_disable_input = false
gui_snap_controls_to_pixels = true
shadow_atlas_size = 0
shadow_atlas_quad_0 = 2
shadow_atlas_quad_1 = 2
shadow_atlas_quad_2 = 3
shadow_atlas_quad_3 = 4

[node name="TextureRect" type="TextureRect" parent="Viewport" index="0"]

anchor_left = 0.0
anchor_top = 0.0
anchor_right = 0.0
anchor_bottom = 0.0
margin_right = 40.0
margin_bottom = 40.0
rect_pivot_offset = Vector2( 0, 0 )
rect_clip_content = false
mouse_filter = 1
mouse_default_cursor_shape = 0
size_flags_horizontal = 1
size_flags_vertical = 1
texture = ExtResource( 3 )
stretch_mode = 0


